{
    "file": "EMPFlow.json",
    "flow": {
        "type": "flow",
        "output_name": "flow",
        "n_to_save": 100,
        "variables": {
            "customs": [
                "flow_pt",
                "flow_energy",
                "flow_deta",
                "flow_dphi",
                "flow_dr"
            ]
        },
        "edm_names": {
            "flow_pt": "pt",
            "flow_energy": "energy",
            "flow_deta": "deta",
            "flow_dphi": "dphi",
            "flow_dr": "dr"
        },
        "associations": {
            "track": {
                "variables": {
                    "file": "fragments/pflow-track-variables.json",
                    "ints": [
                        "truthOriginLabel",
                        "truthVertexIndex"
                    ],
                    "chars": [
                        "leptonID"
                    ]
                },
                "edm_names": {
                    "ip_prefix": "btagIp_"
                }
            }
        }
    }
}