{
    "jet_collection": "AntiKt4EMPFlowJets",
    "calibration": {
    },
    "selection": {
        "file": "fragments/pflow-selection.json"
    },
    "dl2_configs": [
    ],
    "variables": {
        "btag": {
            "jet_floats": [
                "pt",
                "deltaRToMatchedTruthJet",
                "truthJetPt",
                "truthJetEta"
            ]
        },
        "default_mapping": {
            "file": "fragments/default-mapping.json"
        }
    },
    "tracks": [
    ],
    "truths": [
        {
            "file": "fragments/overlap-leptons-TRUTH3.json"
        }
    ],
    "decorate": {
        "jet_aug": false,
        "btag_jes": false,
        "track_sv_info": false,
        "lepton_decay_label": false
    },
    "flow": {
        "type": "flow",
        "output_name": "flow",
        "n_to_save": 20,
        "variables": {
            "customs": ["pt", "energy", "deta", "dphi", "dr"]
        },
        "associations": {
        }
    },
    "btagging_link": ""
}
