{
    "pflow": {
        "configuration": {
            "file": "trigger_pflow.json"
        }
    },
    "emtopo": {
        "configuration": {
            "file": "trigger_emtopo.json"
        }
    }
}
